DS 201 Homework 3
…
conventional      organic 
        8957         8954 

Use an appropriate command(s) to filter the rows of the data set for which the type is organic.

Use an appropriate command(s) to select the average price, type, and region variables from the data set.

Use an appropriate command(s) to compute the mean for the average_price variable grouped by region and filter rows with the regions with the top ten mean average_price values. Which ten regions have the highest mean for average_price?

The mutate function can be used to create new variables from existing ones. Run the following command to create a new variable named total_volume that is made up by adding together the small, large, and extra large volumes from the avocado_prices data.

avocado_prices %>%
  mutate(total_volume = small_hass_volume + large_hass_volume + extra_l_hass_volume)

# A tibble: 17,911 × 10
   Date       average_price small_hass_volume large_hass_volume
   <date>             <dbl>             <dbl>             <dbl>
 1 2015-12-27          1.33             1037.            54455.
 2 2015-12-20          1.35              674.            44639.
 3 2015-12-13          0.93              795.           109150.
 4 2015-12-06          1.08             1132             71976.
 5 2015-11-29          1.28              941.            43838.
 6 2015-11-22          1.26             1184.            48068.
 7 2015-11-15          0.99             1369.            73673.
 8 2015-11-08          0.98              704.           101815.
 9 2015-11-01          1.02             1022.            87316.
10 2015-10-25          1.07              842.            64757.
# ℹ 17,901 more rows
# ℹ 6 more variables: extra_l_hass_volume <dbl>, type <chr>, yr <dbl>,
#   region <chr>, wk <dbl>, total_volume <dbl>
…
